al
ah
ax
eax
rax
bl
bh
bx
ebx
rbx
cl
ch
cx
ecx
rcx
dl
dh
dx
edx
rdx
spl
sp
esp
rsp
bpl
bp
ebp
rbp
sil
si
esi
rsi
dil
di
edi
rdi
r8b
r9b
r10b
r11b
r12b
r13b
r14b
r15b
r8w
r9w
r10w
r11w
r12w
r13w
r14w
r15w
r8d
r9d
r10d
r11d
r12d
r13d
r14d
r15d
r8
r9
r10
r11
r12
r13
r14
r15
es
cs
ss
ds
fs
gs
segr6
segr7
cr0
cr1
cr2
cr3
cr4
cr5
cr6
cr7
cr8
cr9
cr10
cr11
cr12
cr13
cr14
cr15
dr0
dr1
dr2
dr3
dr4
dr5
dr6
dr7
dr8
dr9
dr10
dr11
dr12
dr13
dr14
dr15
tr0
tr1
tr2
tr3
tr4
tr5
tr6
tr7
st0
st1
st2
st3
st4
st5
st6
st7
mm0
mm1
mm2
mm3
mm4
mm5
mm6
mm7
xmm0
xmm1
xmm2
xmm3
xmm4
xmm5
xmm6
xmm7
xmm8
xmm9
xmm10
xmm11
xmm12
xmm13
xmm14
xmm15
xmm16
xmm17
xmm18
xmm19
xmm20
xmm21
xmm22
xmm23
xmm24
xmm25
xmm26
xmm27
xmm28
xmm29
xmm30
xmm31
ymm0
ymm1
ymm2
ymm3
ymm4
ymm5
ymm6
ymm7
ymm8
ymm9
ymm10
ymm11
ymm12
ymm13
ymm14
ymm15
ymm16
ymm17
ymm18
ymm19
ymm20
ymm21
ymm22
ymm23
ymm24
ymm25
ymm26
ymm27
ymm28
ymm29
ymm30
ymm31
zmm0
zmm1
zmm2
zmm3
zmm4
zmm5
zmm6
zmm7
zmm8
zmm9
zmm10
zmm11
zmm12
zmm13
zmm14
zmm15
zmm16
zmm17
zmm18
zmm19
zmm20
zmm21
zmm22
zmm23
zmm24
zmm25
zmm26
zmm27
zmm28
zmm29
zmm30
zmm31
tmm0
tmm1
tmm2
tmm3
tmm4
tmm5
tmm6
tmm7
k0
k1
k2
k3
k4
k5
k6
k7
bnd0
bnd1
bnd2
bnd3
